<mxfile host="app.diagrams.net" modified="2024-05-24T18:06:03.087Z" agent="Mozilla/5.0 (Windows NT 10.0; Win64; x64; rv:126.0) Gecko/20100101 Firefox/126.0" version="21.7.4" etag="VyLJLXRROEg54_WtbqMe" type="gitlab">
  <diagram name="Page-1" id="Fl-sH1Us8-QqmElxuM75">
    <mxGraphModel>
      <root>
        <mxCell id="0" />
        <mxCell id="1" parent="0" />
      </root>
    </mxGraphModel>
  </diagram>
</mxfile>
